<?xml version="1.0" encoding="utf-8"?>
<!-- Generator: Adobe Illustrator 25.3.1, SVG Export Plug-In . SVG Version: 6.00 Build 0)  -->
<svg version="1.1" id="Layer_1" xmlns="http://www.w3.org/2000/svg" xmlns:xlink="http://www.w3.org/1999/xlink" x="0px" y="0px"
	 viewBox="0 0 76 50" style="enable-background:new 0 0 76 50;" xml:space="preserve">
<style type="text/css">
	.st0{fill:none;stroke:#78DEA2;stroke-width:3;stroke-miterlimit:10;}
</style>
<path class="st0" d="M0.3,47.6c0,0,55.5-6.8,75.4-3.2"/>
</svg>
